<?xml version="1.0" encoding="UTF-8"?>
<svg width="60px" height="61px" viewBox="0 0 60 61" version="1.1" xmlns="http://www.w3.org/2000/svg" xmlns:xlink="http://www.w3.org/1999/xlink">
    <!-- Generator: Sketch 50.2 (55047) - http://www.bohemiancoding.com/sketch -->
    <title>Play</title>
    <desc>Created with Sketch.</desc>
    <defs>
        <path d="M30,60.999 C13.458,60.999 0,47.541 0,30.999 C0,14.458 13.458,0.999 30,0.999 C46.542,0.999 60,14.458 60,30.999 C60,47.541 46.542,60.999 30,60.999 Z M30,2.999 C14.561,2.999 2,15.559 2,30.999 C2,46.438 14.561,58.999 30,58.999 C45.439,58.999 58,46.438 58,30.999 C58,15.559 45.439,2.999 30,2.999 Z M44.479,31.877 L22.479,43.876 C22.33,43.959 22.165,44 22,44 C21.823,44 21.647,43.952 21.49,43.859 C21.186,43.679 21,43.352 21,42.999 L21,18.999 C21,18.647 21.186,18.32 21.49,18.139 C21.792,17.959 22.169,17.952 22.479,18.12 L44.479,30.122 C44.8,30.296 45,30.633 45,30.999 C45,31.366 44.8,31.703 44.479,31.877 Z M23,20.683 L23,41.314 L41.912,30.999 L23,20.683 Z" id="path-1"></path>
    </defs>
    <g id="Play" stroke="none" stroke-width="1" fill="none" fill-rule="evenodd">
        <g id="colors/smoke">
            <mask id="mask-2" fill="white">
                <use xlink:href="#path-1"></use>
            </mask>
            <use id="Mask" fill="#000000" xlink:href="#path-1"></use>
        </g>
    </g>
</svg>