<?xml version="1.0" encoding="UTF-8"?>
<svg width="24px" height="24px" viewBox="0 0 24 24" version="1.1" xmlns="http://www.w3.org/2000/svg" xmlns:xlink="http://www.w3.org/1999/xlink">
    <!-- Generator: Sketch 50.2 (55047) - http://www.bohemiancoding.com/sketch -->
    <title>price_tag</title>
    <desc>Created with Sketch.</desc>
    <defs>
        <path d="M22.0416667,11.89675 L11.9101667,22.4269167 C11.5354583,22.8006667 11.054375,23 10.5416667,23 C10.0289583,23 9.547875,22.8006667 9.18658333,22.439375 L0.559666667,13.8134167 C0.198375,13.4530833 0,12.9710417 0,12.4583333 C0,11.945625 0.198375,11.4645417 0.559666667,11.10325 L11.1166667,0.945875 C11.658125,0.4025 12.6317917,0 13.4166667,0 L21.0833333,0 C22.140375,0 23,0.859625 23,1.91666667 L23,9.58333333 C23,10.3691667 22.5965417,11.341875 22.0416667,11.89675 Z M21.0833333,1.91666667 L13.4166667,1.91666667 C13.1435417,1.91666667 12.6509583,2.12079167 12.4583333,2.31341667 L1.90133333,12.47175 L10.5416667,21.08525 L10.5416667,21.0833333 C10.5435833,21.0833333 10.5445417,21.0833333 10.5445417,21.0833333 L20.6731667,10.5550833 C20.8792083,10.3490417 21.0833333,9.85645833 21.0833333,9.58333333 L21.0833333,1.91666667 Z M18.2083333,6.70833333 C17.1512917,6.70833333 16.292625,5.84870833 16.292625,4.79166667 C16.292625,3.734625 17.1512917,2.875 18.2083333,2.875 C19.265375,2.875 20.1259583,3.734625 20.1259583,4.79166667 C20.1259583,5.84870833 19.265375,6.70833333 18.2083333,6.70833333 Z M13.7655,11.663875 L12.4104167,10.3087917 C12.1967083,10.0950833 11.937,9.95325 11.6974167,9.91875 C11.560375,9.90054167 11.4444167,9.91875 11.3945833,9.9705 C11.2747917,10.0893333 11.313125,10.565625 11.732875,10.9863333 C11.732875,10.9863333 11.7338333,10.9863333 11.7338333,10.9872917 C12.2407917,11.4952083 12.5714167,12.1334583 12.6653333,12.785125 C12.77075,13.5287917 12.555125,14.23125 12.0711667,14.7132917 C11.6734583,15.1129167 11.1195417,15.3333333 10.5148333,15.3333333 C10.042375,15.3333333 9.568,15.188625 9.12716667,14.947125 L9.02270833,15.0525417 C8.83583333,15.2384583 8.5905,15.332375 8.34516667,15.332375 C8.09983333,15.332375 7.8545,15.2384583 7.667625,15.0525417 C7.293875,14.6778333 7.29291667,14.0712083 7.667625,13.6974583 L6.99008333,13.0189583 C6.615375,12.6452083 6.615375,12.0385833 6.99008333,11.663875 C7.36479167,11.2891667 7.97045833,11.2891667 8.34516667,11.663875 L9.70025,13.0189583 C9.9935,13.3122083 10.3135833,13.4166667 10.5148333,13.4166667 C10.5675417,13.4166667 10.6652917,13.409 10.7160833,13.3582083 C10.766875,13.3074167 10.787,13.1914583 10.766875,13.0563333 C10.7333333,12.8157917 10.5915,12.555125 10.3768333,12.3404583 C10.375875,12.3404583 10.375875,12.3385417 10.3749167,12.3385417 C9.23833333,11.1990833 9.08979167,9.56416667 10.0395,8.61541667 C10.5225,8.13241667 11.2278333,7.91583333 11.9676667,8.02220833 C12.319375,8.07204167 12.664375,8.196625 12.98925,8.374875 L13.0879583,8.27616667 C13.4626667,7.90145833 14.0692917,7.90145833 14.4430417,8.27616667 C14.81775,8.64991667 14.81775,9.2575 14.4430417,9.63125 L15.1205833,10.3087917 C15.4952917,10.6835 15.4952917,11.290125 15.1205833,11.663875 C14.7468333,12.0385833 14.1402083,12.0385833 13.7655,11.663875 Z" id="path-1"></path>
    </defs>
    <g id="price_tag" stroke="none" stroke-width="1" fill="none" fill-rule="evenodd">
        <g id="colors/smoke">
            <mask id="mask-2" fill="white">
                <use xlink:href="#path-1"></use>
            </mask>
            <use id="Mask" fill="#4A4A4A" xlink:href="#path-1"></use>
        </g>
    </g>
</svg>