<?xml version="1.0" encoding="UTF-8"?>
<svg width="24px" height="24px" viewBox="0 0 24 24" version="1.1" xmlns="http://www.w3.org/2000/svg" xmlns:xlink="http://www.w3.org/1999/xlink">
    <!-- Generator: Sketch 50.2 (55047) - http://www.bohemiancoding.com/sketch -->
    <title>Warning</title>
    <desc>Created with Sketch.</desc>
    <defs>
        <path d="M23.76576,10.56096 L18.504,19.68096 C18.33312,19.9776 18.01824,20.16 17.67648,20.16 L7.15296,20.16 C6.8112,20.16 6.49632,19.9776 6.32544,19.68096 L1.06272,10.56096 C0.89088,10.26336 0.89088,9.89664 1.06272,9.59904 L6.32544,0.47904 C6.49632,0.1824 6.8112,0 7.15296,0 L17.67648,0 C18.01824,0 18.33312,0.1824 18.504,0.47904 L23.76576,9.59904 C23.9376,9.89664 23.9376,10.26336 23.76576,10.56096 Z M17.12448,1.92 L7.70496,1.92 L2.99616,10.08 L7.70496,18.24 L17.12448,18.24 L21.83328,10.08 L17.12448,1.92 Z M12.41472,15.36 C12.16512,15.36 11.91744,15.2544 11.73504,15.0816 C11.5632,14.8992 11.4576,14.6496 11.4576,14.4 C11.4576,14.1504 11.5632,13.9008 11.73504,13.7184 C12.09888,13.3632 12.74016,13.3632 13.09344,13.7184 C13.26528,13.9008 13.37088,14.1504 13.37088,14.4 C13.37088,14.6496 13.26528,14.8992 13.09344,15.0816 C12.912,15.2544 12.66336,15.36 12.41472,15.36 Z M12.41472,12.48 C11.88672,12.48 11.4576,12.04992 11.4576,11.52 L11.4576,5.76 C11.4576,5.23008 11.88672,4.8 12.41472,4.8 C12.94272,4.8 13.37088,5.23008 13.37088,5.76 L13.37088,11.52 C13.37088,12.04992 12.94272,12.48 12.41472,12.48 Z" id="path-1"></path>
    </defs>
    <g id="Warning" stroke="none" stroke-width="1" fill="none" fill-rule="evenodd">
        <g id="Group" transform="translate(0.000000, 2.000000)">
            <mask id="mask-2" fill="white">
                <use xlink:href="#path-1"></use>
            </mask>
            <use id="Mask" fill="#4A4A4A" xlink:href="#path-1"></use>
        </g>
    </g>
</svg>